flows_t1,flows_t2,flows_t3,flows_t4,nflows,nstations,ntrips,period
323.0,89.0,42.0,18.0,472,46,2729,2011-07-01
867.0,117.0,51.0,25.0,1060,52,36233,2011-08-01
951.0,153.0,64.0,33.0,1201,56,40810,2011-09-01
945.0,156.0,70.0,37.0,1208,59,36326,2011-10-01
895.0,150.0,67.0,34.0,1146,59,24876,2011-11-01
735.0,148.0,62.0,30.0,975,56,14284,2012-03-01
981.0,180.0,80.0,40.0,1281,59,44142,2012-04-01
1044.0,172.0,73.0,39.0,1328,60,53480,2012-05-01
1077.0,166.0,73.0,39.0,1355,60,55636,2012-06-01
1212.0,174.0,75.0,39.0,1500,66,70080,2012-07-01
2175.0,331.0,116.0,52.0,2674,84,84584,2012-08-01
2586.0,434.0,160.0,71.0,3251,93,83360,2012-09-01
2793.0,475.0,172.0,70.0,3510,102,76630,2012-10-01
2459.0,416.0,153.0,66.0,3094,103,47296,2012-11-01
2486.0,439.0,176.0,73.0,3174,100,63293,2013-04-01
3061.0,503.0,190.0,80.0,3834,105,97473,2013-05-01
3185.0,544.0,208.0,88.0,4025,107,108353,2013-06-01
3514.0,551.0,210.0,88.0,4363,111,130964,2013-07-01
3650.0,556.0,214.0,91.0,4511,112,147264,2013-08-01
3809.0,553.0,214.0,90.0,4666,123,138826,2013-09-01
4051.0,583.0,216.0,89.0,4939,127,137867,2013-10-01
3316.0,499.0,185.0,77.0,4077,125,72064,2013-11-01
287.0,58.0,27.0,14.0,386,45,8151,2013-12-01
249.0,58.0,27.0,11.0,345,26,6577,2014-01-01
257.0,51.0,25.0,12.0,345,26,6967,2014-02-01
271.0,59.0,27.0,12.0,369,29,11261,2014-03-01
3855.0,587.0,229.0,88.0,4759,132,90911,2014-04-01
4462.0,672.0,245.0,104.0,5483,133,141181,2014-05-01
4650.0,718.0,265.0,109.0,5742,134,159115,2014-06-01
4797.0,735.0,262.0,108.0,5902,135,172681,2014-07-01
4877.0,745.0,265.0,108.0,5995,138,173734,2014-08-01
4897.0,699.0,253.0,102.0,5951,137,168736,2014-09-01
4597.0,682.0,246.0,96.0,5621,138,136908,2014-10-01
3818.0,602.0,224.0,85.0,4729,138,76685,2014-11-01
1974.0,355.0,141.0,53.0,2523,109,34567,2014-12-01
372.0,66.0,35.0,15.0,488,58,7840,2015-01-01
286.0,57.0,28.0,12.0,383,32,4020,2015-02-01
364.0,62.0,34.0,15.0,475,33,11270,2015-03-01
3547.0,605.0,217.0,82.0,4451,137,55843,2015-04-01
4853.0,725.0,271.0,112.0,5961,137,149143,2015-05-01
4819.0,755.0,284.0,116.0,5974,140,144232,2015-06-01
4989.0,757.0,288.0,119.0,6153,140,175321,2015-07-01
4948.0,741.0,278.0,118.0,6085,140,160065,2015-08-01
4820.0,722.0,269.0,116.0,5927,140,150516,2015-09-01
4781.0,733.0,271.0,117.0,5902,151,126656,2015-10-01
4436.0,711.0,265.0,113.0,5525,156,88735,2015-11-01
2652.0,466.0,197.0,76.0,3391,112,48916,2015-12-01
509.0,80.0,42.0,23.0,654,79,12055,2016-01-01
475.0,81.0,43.0,21.0,620,43,14643,2016-02-01
2552.0,437.0,169.0,64.0,3222,117,41277,2016-03-01
4309.0,719.0,277.0,107.0,5412,156,84262,2016-04-01
5317.0,845.0,318.0,135.0,6615,159,129260,2016-05-01
5700.0,902.0,331.0,139.0,7072,161,164667,2016-06-01
5752.0,857.0,325.0,139.0,7073,167,167385,2016-07-01
5833.0,875.0,319.0,137.0,7164,173,174198,2016-08-01
5985.0,857.0,322.0,131.0,7295,182,165690,2016-09-01
5511.0,814.0,306.0,126.0,6757,187,137865,2016-10-01
4947.0,779.0,290.0,115.0,6131,186,99910,2016-11-01
3101.0,551.0,213.0,76.0,3941,165,44991,2016-12-01
1602.0,187.0,58.0,25.0,1872,144,19518,2017-01-01
522.0,78.0,34.0,18.0,652,50,17272,2017-02-01
2168.0,357.0,119.0,40.0,2684,131,31253,2017-03-01
4897.0,827.0,321.0,128.0,6173,176,99860,2017-04-01
5322.0,809.0,316.0,127.0,6574,182,127894,2017-05-01
6076.0,935.0,363.0,148.0,7522,186,161910,2017-06-01
6321.0,958.0,374.0,153.0,7806,189,175833,2017-07-01
6554.0,986.0,386.0,152.0,8078,190,190651,2017-08-01
6416.0,961.0,376.0,144.0,7897,193,165386,2017-09-01
6293.0,924.0,357.0,134.0,7708,197,163662,2017-10-01
5270.0,807.0,309.0,115.0,6501,195,105463,2017-11-01
3706.0,638.0,243.0,91.0,4678,177,55072,2017-12-01
3159.0,591.0,236.0,85.0,4071,166,40932,2018-01-01
3867.0,666.0,257.0,93.0,4883,165,62817,2018-02-01
3895.0,674.0,261.0,93.0,4923,164,62985,2018-03-01
5322.0,861.0,332.0,120.0,6635,195,98194,2018-04-01
6902.0,997.0,379.0,147.0,8425,194,178850,2018-05-01
7472.0,1053.0,404.0,162.0,9091,194,205352,2018-06-01
7920.0,1050.0,404.0,156.0,9530,207,242891,2018-07-01
8593.0,1109.0,417.0,157.0,10276,230,236076,2018-08-01
9322.0,1181.0,426.0,154.0,11083,252,236182,2018-09-01
8784.0,1151.0,411.0,147.0,10493,304,200100,2018-10-01
