{
"type": "FeatureCollection",
"crs": { "type": "name", "properties": { "name": "urn:ogc:def:crs:OGC:1.3:CRS84" } },
"features": [
{ "type": "Feature", "properties": { "id": 1, "sname": "18 Dorrance Warehouse", "lat": 42.387151, "lon": -71.075978 }, "geometry": { "type": "Point", "coordinates": [ -71.075978, 42.387151 ] } },
{ "type": "Feature", "properties": { "id": 3, "sname": "Colleges of the Fenway - Fenway at Avenue Louis Pasteur", "lat": 42.340115122492364, "lon": -71.10061883926393 }, "geometry": { "type": "Point", "coordinates": [ -71.10061883926393, 42.340115122492364 ] } },
{ "type": "Feature", "properties": { "id": 4, "sname": "Tremont St at E Berkeley St", "lat": 42.345392, "lon": -71.069616 }, "geometry": { "type": "Point", "coordinates": [ -71.069616, 42.345392 ] } },
{ "type": "Feature", "properties": { "id": 5, "sname": "Northeastern University - North Parking Lot", "lat": 42.341814, "lon": -71.090179 }, "geometry": { "type": "Point", "coordinates": [ -71.090179, 42.341814 ] } },
{ "type": "Feature", "properties": { "id": 6, "sname": "Cambridge St at Joy St", "lat": 42.361199417496216, "lon": -71.065194867642276 }, "geometry": { "type": "Point", "coordinates": [ -71.065194867642276, 42.361199417496216 ] } },
{ "type": "Feature", "properties": { "id": 7, "sname": "Fan Pier", "lat": 42.352940802392332, "lon": -71.043884754180908 }, "geometry": { "type": "Point", "coordinates": [ -71.043884754180908, 42.352940802392332 ] } },
{ "type": "Feature", "properties": { "id": 8, "sname": "Union Square - Brighton Ave at Cambridge St", "lat": 42.353334, "lon": -71.137313 }, "geometry": { "type": "Point", "coordinates": [ -71.137313, 42.353334 ] } },
{ "type": "Feature", "properties": { "id": 9, "sname": "Commonwealth Ave at Buick St", "lat": 42.350621771537988, "lon": -71.112882187662763 }, "geometry": { "type": "Point", "coordinates": [ -71.112882187662763, 42.350621771537988 ] } },
{ "type": "Feature", "properties": { "id": 10, "sname": "B.U. Central - 725 Comm. Ave.", "lat": 42.350406, "lon": -71.108279 }, "geometry": { "type": "Point", "coordinates": [ -71.108279, 42.350406 ] } },
{ "type": "Feature", "properties": { "id": 11, "sname": "Longwood Ave at Binney St", "lat": 42.338629, "lon": -71.1065 }, "geometry": { "type": "Point", "coordinates": [ -71.1065, 42.338629 ] } },
{ "type": "Feature", "properties": { "id": 12, "sname": "Ruggles T Stop - Columbus Ave at Melnea Cass Blvd", "lat": 42.336244447968781, "lon": -71.087985634803758 }, "geometry": { "type": "Point", "coordinates": [ -71.087985634803758, 42.336244447968781 ] } },
{ "type": "Feature", "properties": { "id": 13, "sname": "Boston Medical Center - E Concord St at Harrison Ave", "lat": 42.336437, "lon": -71.073089 }, "geometry": { "type": "Point", "coordinates": [ -71.073089, 42.336437 ] } },
{ "type": "Feature", "properties": { "id": 14, "sname": "HMS\/HSPH - Avenue Louis Pasteur at Longwood Ave", "lat": 42.337417484597296, "lon": -71.10286116600038 }, "geometry": { "type": "Point", "coordinates": [ -71.10286116600038, 42.337417484597296 ] } },
{ "type": "Feature", "properties": { "id": 15, "sname": "Brighton Mills - 370 Western Ave", "lat": 42.3615457081725, "lon": -71.137762069702163 }, "geometry": { "type": "Point", "coordinates": [ -71.137762069702163, 42.3615457081725 ] } },
{ "type": "Feature", "properties": { "id": 16, "sname": "Back Bay T Stop - Dartmouth St at Stuart St", "lat": 42.348074123174392, "lon": -71.076570153236389 }, "geometry": { "type": "Point", "coordinates": [ -71.076570153236389, 42.348074123174392 ] } },
{ "type": "Feature", "properties": { "id": 17, "sname": "Soldiers Field Park - 111 Western Ave", "lat": 42.365064, "lon": -71.119233 }, "geometry": { "type": "Point", "coordinates": [ -71.119233, 42.365064 ] } },
{ "type": "Feature", "properties": { "id": 19, "sname": "Park Dr at Buswell St", "lat": 42.347241, "lon": -71.105301 }, "geometry": { "type": "Point", "coordinates": [ -71.105301, 42.347241 ] } },
{ "type": "Feature", "properties": { "id": 20, "sname": "Aquarium T Stop - 200 Atlantic Ave", "lat": 42.359911761101181, "lon": -71.051429808139801 }, "geometry": { "type": "Point", "coordinates": [ -71.051429808139801, 42.359911761101181 ] } },
{ "type": "Feature", "properties": { "id": 21, "sname": "Prudential Center - Belvedere St", "lat": 42.345959, "lon": -71.082578 }, "geometry": { "type": "Point", "coordinates": [ -71.082578, 42.345959 ] } },
{ "type": "Feature", "properties": { "id": 22, "sname": "South Station - 700 Atlantic Ave", "lat": 42.352175, "lon": -71.055547 }, "geometry": { "type": "Point", "coordinates": [ -71.055547, 42.352175 ] } },
{ "type": "Feature", "properties": { "id": 23, "sname": "Boston City Hall - 28 State St", "lat": 42.35892, "lon": -71.057629 }, "geometry": { "type": "Point", "coordinates": [ -71.057629, 42.35892 ] } },
{ "type": "Feature", "properties": { "id": 24, "sname": "Seaport Square - Seaport Blvd at Northern Ave", "lat": 42.351481934608579, "lon": -71.044360846281052 }, "geometry": { "type": "Point", "coordinates": [ -71.044360846281052, 42.351481934608579 ] } },
{ "type": "Feature", "properties": { "id": 25, "sname": "South End Library - Tremont St at W Newton St", "lat": 42.341332, "lon": -71.076847 }, "geometry": { "type": "Point", "coordinates": [ -71.076847, 42.341332 ] } },
{ "type": "Feature", "properties": { "id": 26, "sname": "Washington St at Waltham St", "lat": 42.341522, "lon": -71.068922 }, "geometry": { "type": "Point", "coordinates": [ -71.068922, 42.341522 ] } },
{ "type": "Feature", "properties": { "id": 27, "sname": "Roxbury Crossing T Stop - Columbus Ave at Tremont St", "lat": 42.331184, "lon": -71.095171 }, "geometry": { "type": "Point", "coordinates": [ -71.095171, 42.331184 ] } },
{ "type": "Feature", "properties": { "id": 29, "sname": "Innovation Lab - 125 Western Ave at Batten Way", "lat": 42.363732, "lon": -71.124565 }, "geometry": { "type": "Point", "coordinates": [ -71.124565, 42.363732 ] } },
{ "type": "Feature", "properties": { "id": 30, "sname": "Brigham Circle - Francis St at Huntington Ave", "lat": 42.334628930559759, "lon": -71.104079177675885 }, "geometry": { "type": "Point", "coordinates": [ -71.104079177675885, 42.334628930559759 ] } },
{ "type": "Feature", "properties": { "id": 31, "sname": "Seaport Hotel - Congress St at Seaport Ln", "lat": 42.34881026188269, "lon": -71.04167744055303 }, "geometry": { "type": "Point", "coordinates": [ -71.04167744055303, 42.34881026188269 ] } },
{ "type": "Feature", "properties": { "id": 32, "sname": "Landmark Center - Brookline Ave at Park Dr", "lat": 42.345194289440961, "lon": -71.101697087287903 }, "geometry": { "type": "Point", "coordinates": [ -71.101697087287903, 42.345194289440961 ] } },
{ "type": "Feature", "properties": { "id": 33, "sname": "Kenmore Square", "lat": 42.348706, "lon": -71.097009 }, "geometry": { "type": "Point", "coordinates": [ -71.097009, 42.348706 ] } },
{ "type": "Feature", "properties": { "id": 35, "sname": "Arch St at Franklin St", "lat": 42.355819297090648, "lon": -71.058872900994174 }, "geometry": { "type": "Point", "coordinates": [ -71.058872900994174, 42.355819297090648 ] } },
{ "type": "Feature", "properties": { "id": 36, "sname": "Copley Square - Dartmouth St at Boylston St", "lat": 42.349767010087248, "lon": -71.077326536178603 }, "geometry": { "type": "Point", "coordinates": [ -71.077326536178603, 42.349767010087248 ] } },
{ "type": "Feature", "properties": { "id": 37, "sname": "New Balance - 20 Guest St", "lat": 42.357329218677066, "lon": -71.146735399961472 }, "geometry": { "type": "Point", "coordinates": [ -71.146735399961472, 42.357329218677066 ] } },
{ "type": "Feature", "properties": { "id": 38, "sname": "TD Garden - Causeway at Portal Park #2", "lat": 42.366222, "lon": -71.059914 }, "geometry": { "type": "Point", "coordinates": [ -71.059914, 42.366222 ] } },
{ "type": "Feature", "properties": { "id": 39, "sname": "Washington St at Rutland St", "lat": 42.338514601785995, "lon": -71.074040830135345 }, "geometry": { "type": "Point", "coordinates": [ -71.074040830135345, 42.338514601785995 ] } },
{ "type": "Feature", "properties": { "id": 40, "sname": "Lewis Wharf at Atlantic Ave", "lat": 42.363871, "lon": -71.050877 }, "geometry": { "type": "Point", "coordinates": [ -71.050877, 42.363871 ] } },
{ "type": "Feature", "properties": { "id": 41, "sname": "Packard&#8217;s Corner - Comm. Ave. at Brighton Ave.", "lat": 42.352261, "lon": -71.123831 }, "geometry": { "type": "Point", "coordinates": [ -71.123831, 42.352261 ] } },
{ "type": "Feature", "properties": { "id": 42, "sname": "Boylston St at Arlington St", "lat": 42.352583438376996, "lon": -71.067662499935949 }, "geometry": { "type": "Point", "coordinates": [ -71.067662499935949, 42.352583438376996 ] } },
{ "type": "Feature", "properties": { "id": 43, "sname": "Rowes Wharf at Atlantic Ave", "lat": 42.357143, "lon": -71.050699 }, "geometry": { "type": "Point", "coordinates": [ -71.050699, 42.357143 ] } },
{ "type": "Feature", "properties": { "id": 44, "sname": "Congress St at North St", "lat": 42.360613, "lon": -71.057452 }, "geometry": { "type": "Point", "coordinates": [ -71.057452, 42.360613 ] } },
{ "type": "Feature", "properties": { "id": 45, "sname": "Yawkey Way at Boylston St.", "lat": 42.344680840387397, "lon": -71.097853481769562 }, "geometry": { "type": "Point", "coordinates": [ -71.097853481769562, 42.344680840387397 ] } },
{ "type": "Feature", "properties": { "id": 46, "sname": "Christian Science Plaza - Massachusetts Ave at Westland Ave", "lat": 42.343665824514602, "lon": -71.085823774337769 }, "geometry": { "type": "Point", "coordinates": [ -71.085823774337769, 42.343665824514602 ] } },
{ "type": "Feature", "properties": { "id": 47, "sname": "Cross St at Hanover St", "lat": 42.362811, "lon": -71.056067 }, "geometry": { "type": "Point", "coordinates": [ -71.056067, 42.362811 ] } },
{ "type": "Feature", "properties": { "id": 48, "sname": "Post Office Square - Pearl St at Milk St", "lat": 42.356755, "lon": -71.055407 }, "geometry": { "type": "Point", "coordinates": [ -71.055407, 42.356755 ] } },
{ "type": "Feature", "properties": { "id": 49, "sname": "Stuart St at Charles St", "lat": 42.351146, "lon": -71.066289 }, "geometry": { "type": "Point", "coordinates": [ -71.066289, 42.351146 ] } },
{ "type": "Feature", "properties": { "id": 50, "sname": "Boylston St at Berkeley St", "lat": 42.351141982547496, "lon": -71.07329249382019 }, "geometry": { "type": "Point", "coordinates": [ -71.07329249382019, 42.351141982547496 ] } },
{ "type": "Feature", "properties": { "id": 51, "sname": "Washington St at Lenox St", "lat": 42.3350989929096, "lon": -71.07903778553009 }, "geometry": { "type": "Point", "coordinates": [ -71.07903778553009, 42.3350989929096 ] } },
{ "type": "Feature", "properties": { "id": 52, "sname": "Newbury St at Hereford St", "lat": 42.348717, "lon": -71.085954 }, "geometry": { "type": "Point", "coordinates": [ -71.085954, 42.348717 ] } },
{ "type": "Feature", "properties": { "id": 53, "sname": "Beacon St at Massachusetts Ave", "lat": 42.350826806690961, "lon": -71.089810878038406 }, "geometry": { "type": "Point", "coordinates": [ -71.089810878038406, 42.350826806690961 ] } },
{ "type": "Feature", "properties": { "id": 54, "sname": "Tremont St at West St", "lat": 42.354979, "lon": -71.063348 }, "geometry": { "type": "Point", "coordinates": [ -71.063348, 42.354979 ] } },
{ "type": "Feature", "properties": { "id": 55, "sname": "Boylston St at Massachusetts Ave", "lat": 42.347265, "lon": -71.088088 }, "geometry": { "type": "Point", "coordinates": [ -71.088088, 42.347265 ] } },
{ "type": "Feature", "properties": { "id": 56, "sname": "Dudley Square - Dudley St at Warren St", "lat": 42.328540462934022, "lon": -71.084164828062043 }, "geometry": { "type": "Point", "coordinates": [ -71.084164828062043, 42.328540462934022 ] } },
{ "type": "Feature", "properties": { "id": 57, "sname": "Columbus Ave at Massachusetts Ave", "lat": 42.340542615516355, "lon": -71.081388479142333 }, "geometry": { "type": "Point", "coordinates": [ -71.081388479142333, 42.340542615516355 ] } },
{ "type": "Feature", "properties": { "id": 58, "sname": "Beacon St at Arlington St", "lat": 42.355549323361352, "lon": -71.072841882705688 }, "geometry": { "type": "Point", "coordinates": [ -71.072841882705688, 42.355549323361352 ] } },
{ "type": "Feature", "properties": { "id": 59, "sname": "Chinatown Gate Plaza", "lat": 42.351356, "lon": -71.059367 }, "geometry": { "type": "Point", "coordinates": [ -71.059367, 42.351356 ] } },
{ "type": "Feature", "properties": { "id": 60, "sname": "Charles Circle - Charles St at Cambridge St", "lat": 42.36075761041193, "lon": -71.071329098240312 }, "geometry": { "type": "Point", "coordinates": [ -71.071329098240312, 42.36075761041193 ] } },
{ "type": "Feature", "properties": { "id": 61, "sname": "Boylston St at Fairfield St", "lat": 42.348762, "lon": -71.082383 }, "geometry": { "type": "Point", "coordinates": [ -71.082383, 42.348762 ] } },
{ "type": "Feature", "properties": { "id": 63, "sname": "Dorchester Ave at Gillette Park", "lat": 42.344040510016363, "lon": -71.057376265525804 }, "geometry": { "type": "Point", "coordinates": [ -71.057376265525804, 42.344040510016363 ] } },
{ "type": "Feature", "properties": { "id": 64, "sname": "Congress St at Sleeper St", "lat": 42.351004495946704, "lon": -71.049300134181991 }, "geometry": { "type": "Point", "coordinates": [ -71.049300134181991, 42.351004495946704 ] } },
{ "type": "Feature", "properties": { "id": 65, "sname": "Boston Convention and Exhibition Center - Summer St at West Side Dr", "lat": 42.347763454147454, "lon": -71.045359969139085 }, "geometry": { "type": "Point", "coordinates": [ -71.045359969139085, 42.347763454147454 ] } },
{ "type": "Feature", "properties": { "id": 66, "sname": "Allston Green District - Griggs St at Commonwealth Ave", "lat": 42.349224693382979, "lon": -71.13275302578586 }, "geometry": { "type": "Point", "coordinates": [ -71.13275302578586, 42.349224693382979 ] } },
{ "type": "Feature", "properties": { "id": 67, "sname": "MIT at Mass Ave \/ Amherst St", "lat": 42.3581, "lon": -71.093198 }, "geometry": { "type": "Point", "coordinates": [ -71.093198, 42.3581 ] } },
{ "type": "Feature", "properties": { "id": 68, "sname": "Central Square at Mass Ave \/ Essex St", "lat": 42.36507, "lon": -71.1031 }, "geometry": { "type": "Point", "coordinates": [ -71.1031, 42.36507 ] } },
{ "type": "Feature", "properties": { "id": 69, "sname": "Coolidge Corner - Beacon St @ Centre St", "lat": 42.341598, "lon": -71.123338 }, "geometry": { "type": "Point", "coordinates": [ -71.123338, 42.341598 ] } },
{ "type": "Feature", "properties": { "id": 70, "sname": "Harvard Kennedy School at Bennett St \/ Eliot St", "lat": 42.371991654086756, "lon": -71.122269630432129 }, "geometry": { "type": "Point", "coordinates": [ -71.122269630432129, 42.371991654086756 ] } },
{ "type": "Feature", "properties": { "id": 71, "sname": "Conway Park - Somerville Avenue", "lat": 42.383405, "lon": -71.107593 }, "geometry": { "type": "Point", "coordinates": [ -71.107593, 42.383405 ] } },
{ "type": "Feature", "properties": { "id": 72, "sname": "One Broadway \/ Kendall Sq at Main St \/ 3rd St", "lat": 42.362613, "lon": -71.084105 }, "geometry": { "type": "Point", "coordinates": [ -71.084105, 42.362613 ] } },
{ "type": "Feature", "properties": { "id": 73, "sname": "Harvard Square at Brattle St \/ Eliot St", "lat": 42.373231, "lon": -71.120886 }, "geometry": { "type": "Point", "coordinates": [ -71.120886, 42.373231 ] } },
{ "type": "Feature", "properties": { "id": 74, "sname": "Harvard Square at Mass Ave\/ Dunster", "lat": 42.373268, "lon": -71.118579 }, "geometry": { "type": "Point", "coordinates": [ -71.118579, 42.373268 ] } },
{ "type": "Feature", "properties": { "id": 75, "sname": "Lafayette Square at Mass Ave \/ Main St \/ Columbia St", "lat": 42.363464693043468, "lon": -71.100573241710649 }, "geometry": { "type": "Point", "coordinates": [ -71.100573241710649, 42.363464693043468 ] } },
{ "type": "Feature", "properties": { "id": 76, "sname": "Central Sq Post Office \/ Cambridge City Hall at Mass Ave \/ Pleasant St", "lat": 42.366426, "lon": -71.105495 }, "geometry": { "type": "Point", "coordinates": [ -71.105495, 42.366426 ] } },
{ "type": "Feature", "properties": { "id": 77, "sname": "Somerville City Hall", "lat": 42.386844, "lon": -71.09812 }, "geometry": { "type": "Point", "coordinates": [ -71.09812, 42.386844 ] } },
{ "type": "Feature", "properties": { "id": 78, "sname": "Union Square - Somerville", "lat": 42.379637, "lon": -71.095319 }, "geometry": { "type": "Point", "coordinates": [ -71.095319, 42.379637 ] } },
{ "type": "Feature", "properties": { "id": 79, "sname": "Beacon St at Washington \/ Kirkland", "lat": 42.37842, "lon": -71.105668 }, "geometry": { "type": "Point", "coordinates": [ -71.105668, 42.37842 ] } },
{ "type": "Feature", "properties": { "id": 80, "sname": "MIT Stata Center at Vassar St \/ Main St", "lat": 42.362131234499103, "lon": -71.091156005859361 }, "geometry": { "type": "Point", "coordinates": [ -71.091156005859361, 42.362131234499103 ] } },
{ "type": "Feature", "properties": { "id": 81, "sname": "Boylston St at Washington St", "lat": 42.352409, "lon": -71.062679 }, "geometry": { "type": "Point", "coordinates": [ -71.062679, 42.352409 ] } },
{ "type": "Feature", "properties": { "id": 82, "sname": "Washington Square at Washington St. \/ Beacon St.", "lat": 42.339335, "lon": -71.13493 }, "geometry": { "type": "Point", "coordinates": [ -71.13493, 42.339335 ] } },
{ "type": "Feature", "properties": { "id": 84, "sname": "CambridgeSide Galleria - CambridgeSide PL at Land Blvd", "lat": 42.366981, "lon": -71.076472 }, "geometry": { "type": "Point", "coordinates": [ -71.076472, 42.366981 ] } },
{ "type": "Feature", "properties": { "id": 85, "sname": "Spaulding Rehabilitation Hospital - Charlestown Navy Yard", "lat": 42.378338, "lon": -71.048927 }, "geometry": { "type": "Point", "coordinates": [ -71.048927, 42.378338 ] } },
{ "type": "Feature", "properties": { "id": 86, "sname": "Brookline Village - Pearl Street @ MBTA", "lat": 42.332799, "lon": -71.116205 }, "geometry": { "type": "Point", "coordinates": [ -71.116205, 42.332799 ] } },
{ "type": "Feature", "properties": { "id": 87, "sname": "Harvard University Housing - 115 Putnam Ave at Peabody Terrace", "lat": 42.366621, "lon": -71.114214 }, "geometry": { "type": "Point", "coordinates": [ -71.114214, 42.366621 ] } },
{ "type": "Feature", "properties": { "id": 88, "sname": "Inman Square at Vellucci Plaza \/ Hampshire St", "lat": 42.374035, "lon": -71.101427 }, "geometry": { "type": "Point", "coordinates": [ -71.101427, 42.374035 ] } },
{ "type": "Feature", "properties": { "id": 89, "sname": "Harvard Law School at Mass Ave \/ Jarvis St", "lat": 42.379011, "lon": -71.119945 }, "geometry": { "type": "Point", "coordinates": [ -71.119945, 42.379011 ] } },
{ "type": "Feature", "properties": { "id": 90, "sname": "Lechmere Station at Cambridge St \/ First St", "lat": 42.370677, "lon": -71.076529 }, "geometry": { "type": "Point", "coordinates": [ -71.076529, 42.370677 ] } },
{ "type": "Feature", "properties": { "id": 91, "sname": "One Kendall Square at Hampshire St \/ Portland St", "lat": 42.366277, "lon": -71.09169 }, "geometry": { "type": "Point", "coordinates": [ -71.09169, 42.366277 ] } },
{ "type": "Feature", "properties": { "id": 92, "sname": "University of Massachusetts Boston - Integrated Sciences Complex", "lat": 42.314507, "lon": -71.041269 }, "geometry": { "type": "Point", "coordinates": [ -71.041269, 42.314507 ] } },
{ "type": "Feature", "properties": { "id": 93, "sname": "JFK\/UMass T Stop", "lat": 42.320339735157226, "lon": -71.05118036270143 }, "geometry": { "type": "Point", "coordinates": [ -71.05118036270143, 42.320339735157226 ] } },
{ "type": "Feature", "properties": { "id": 94, "sname": "Main St at Austin St", "lat": 42.375603, "lon": -71.064608 }, "geometry": { "type": "Point", "coordinates": [ -71.064608, 42.375603 ] } },
{ "type": "Feature", "properties": { "id": 95, "sname": "Cambridge St - at Columbia St \/ Webster Ave", "lat": 42.372969, "lon": -71.094445 }, "geometry": { "type": "Point", "coordinates": [ -71.094445, 42.372969 ] } },
{ "type": "Feature", "properties": { "id": 96, "sname": "Cambridge Main Library at Broadway \/ Trowbridge St", "lat": 42.373379, "lon": -71.111075 }, "geometry": { "type": "Point", "coordinates": [ -71.111075, 42.373379 ] } },
{ "type": "Feature", "properties": { "id": 97, "sname": "Harvard University River Houses at DeWolfe St \/ Cowperthwaite St", "lat": 42.36919031768079, "lon": -71.117141246795654 }, "geometry": { "type": "Point", "coordinates": [ -71.117141246795654, 42.36919031768079 ] } },
{ "type": "Feature", "properties": { "id": 98, "sname": "Warren St at Chelsea St", "lat": 42.371848, "lon": -71.060292 }, "geometry": { "type": "Point", "coordinates": [ -71.060292, 42.371848 ] } },
{ "type": "Feature", "properties": { "id": 99, "sname": "Wilson Square", "lat": 42.385582, "lon": -71.113341 }, "geometry": { "type": "Point", "coordinates": [ -71.113341, 42.385582 ] } },
{ "type": "Feature", "properties": { "id": 100, "sname": "Davis Square", "lat": 42.396969, "lon": -71.123024 }, "geometry": { "type": "Point", "coordinates": [ -71.123024, 42.396969 ] } },
{ "type": "Feature", "properties": { "id": 102, "sname": "Powder House Circle - Nathan Tufts Park", "lat": 42.400877, "lon": -71.116772 }, "geometry": { "type": "Point", "coordinates": [ -71.116772, 42.400877 ] } },
{ "type": "Feature", "properties": { "id": 103, "sname": "JFK Crossing at Harvard St. \/ Thorndike St.", "lat": 42.346563, "lon": -71.128374 }, "geometry": { "type": "Point", "coordinates": [ -71.128374, 42.346563 ] } },
{ "type": "Feature", "properties": { "id": 104, "sname": "Harvard University Radcliffe Quadrangle at Shepard St \/ Garden St", "lat": 42.380287, "lon": -71.125107 }, "geometry": { "type": "Point", "coordinates": [ -71.125107, 42.380287 ] } },
{ "type": "Feature", "properties": { "id": 105, "sname": "Lower Cambridgeport at Magazine St \/ Riverside Rd", "lat": 42.357218503176533, "lon": -71.1138716340065 }, "geometry": { "type": "Point", "coordinates": [ -71.1138716340065, 42.357218503176533 ] } },
{ "type": "Feature", "properties": { "id": 106, "sname": "Mt Pleasant Ave \/ Dudley Town Common", "lat": 42.325333, "lon": -71.075354 }, "geometry": { "type": "Point", "coordinates": [ -71.075354, 42.325333 ] } },
{ "type": "Feature", "properties": { "id": 107, "sname": "Ames St at Main St", "lat": 42.3625, "lon": -71.08822 }, "geometry": { "type": "Point", "coordinates": [ -71.08822, 42.3625 ] } },
{ "type": "Feature", "properties": { "id": 108, "sname": "Harvard University \/ SEAS Cruft-Pierce Halls at 29 Oxford St", "lat": 42.377945, "lon": -71.116865 }, "geometry": { "type": "Point", "coordinates": [ -71.116865, 42.377945 ] } },
{ "type": "Feature", "properties": { "id": 109, "sname": "TD Garden - West End Park", "lat": 42.365907884450849, "lon": -71.064466685056686 }, "geometry": { "type": "Point", "coordinates": [ -71.064466685056686, 42.365907884450849 ] } },
{ "type": "Feature", "properties": { "id": 110, "sname": "Harvard University Gund Hall at Quincy St \/ Kirkland S", "lat": 42.376369, "lon": -71.114025 }, "geometry": { "type": "Point", "coordinates": [ -71.114025, 42.376369 ] } },
{ "type": "Feature", "properties": { "id": 111, "sname": "Packard Ave \/ Powderhouse Blvd", "lat": 42.40449, "lon": -71.123413 }, "geometry": { "type": "Point", "coordinates": [ -71.123413, 42.40449 ] } },
{ "type": "Feature", "properties": { "id": 112, "sname": "Clarendon Hill at Broadway", "lat": 42.406302, "lon": -71.132446 }, "geometry": { "type": "Point", "coordinates": [ -71.132446, 42.406302 ] } },
{ "type": "Feature", "properties": { "id": 113, "sname": "Andrew T Stop - Dorchester Ave at Dexter St", "lat": 42.330473650415172, "lon": -71.057016849517808 }, "geometry": { "type": "Point", "coordinates": [ -71.057016849517808, 42.330473650415172 ] } },
{ "type": "Feature", "properties": { "id": 114, "sname": "Teele Square at 239 Holland St", "lat": 42.402763, "lon": -71.126908 }, "geometry": { "type": "Point", "coordinates": [ -71.126908, 42.402763 ] } },
{ "type": "Feature", "properties": { "id": 115, "sname": "Porter Square Station", "lat": 42.387995, "lon": -71.119084 }, "geometry": { "type": "Point", "coordinates": [ -71.119084, 42.387995 ] } },
{ "type": "Feature", "properties": { "id": 116, "sname": "359 Broadway - Broadway at Fayette Street", "lat": 42.370803, "lon": -71.104412 }, "geometry": { "type": "Point", "coordinates": [ -71.104412, 42.370803 ] } },
{ "type": "Feature", "properties": { "id": 117, "sname": "Binney St \/ Sixth St", "lat": 42.366095, "lon": -71.086388 }, "geometry": { "type": "Point", "coordinates": [ -71.086388, 42.366095 ] } },
{ "type": "Feature", "properties": { "id": 118, "sname": "Linear Park - Mass. Ave. at Cameron Ave. ", "lat": 42.397828, "lon": -71.130516 }, "geometry": { "type": "Point", "coordinates": [ -71.130516, 42.397828 ] } },
{ "type": "Feature", "properties": { "id": 119, "sname": "South Boston Library - 646 E Broadway", "lat": 42.335741, "lon": -71.03877 }, "geometry": { "type": "Point", "coordinates": [ -71.03877, 42.335741 ] } },
{ "type": "Feature", "properties": { "id": 120, "sname": "Charles St and Beacon St", "lat": 42.356052, "lon": -71.069849 }, "geometry": { "type": "Point", "coordinates": [ -71.069849, 42.356052 ] } },
{ "type": "Feature", "properties": { "id": 121, "sname": "W Broadway at Dorchester St", "lat": 42.335693, "lon": -71.045859 }, "geometry": { "type": "Point", "coordinates": [ -71.045859, 42.335693 ] } },
{ "type": "Feature", "properties": { "id": 122, "sname": "Burlington Ave at Brookline Ave", "lat": 42.345733, "lon": -71.100694 }, "geometry": { "type": "Point", "coordinates": [ -71.100694, 42.345733 ] } },
{ "type": "Feature", "properties": { "id": 123, "sname": "JP Center - Centre Street at Myrtle Street", "lat": 42.313156, "lon": -71.11414 }, "geometry": { "type": "Point", "coordinates": [ -71.11414, 42.313156 ] } },
{ "type": "Feature", "properties": { "id": 124, "sname": "Curtis Hall - South St at Centre St", "lat": 42.309054, "lon": -71.11543 }, "geometry": { "type": "Point", "coordinates": [ -71.11543, 42.309054 ] } },
{ "type": "Feature", "properties": { "id": 125, "sname": "Hyde Square - Barbara St at Centre St", "lat": 42.32176525723952, "lon": -71.109841605671136 }, "geometry": { "type": "Point", "coordinates": [ -71.109841605671136, 42.32176525723952 ] } },
{ "type": "Feature", "properties": { "id": 126, "sname": "Egleston Square - Atherton St at Washington St", "lat": 42.315692, "lon": -71.098634 }, "geometry": { "type": "Point", "coordinates": [ -71.098634, 42.315692 ] } },
{ "type": "Feature", "properties": { "id": 128, "sname": "E Cottage St at Columbia Rd", "lat": 42.320561, "lon": -71.06198 }, "geometry": { "type": "Point", "coordinates": [ -71.06198, 42.320561 ] } },
{ "type": "Feature", "properties": { "id": 129, "sname": "Hayes Square - Vine St at Moulton St", "lat": 42.377022, "lon": -71.056605 }, "geometry": { "type": "Point", "coordinates": [ -71.056605, 42.377022 ] } },
{ "type": "Feature", "properties": { "id": 130, "sname": "Upham&#8217;s Corner", "lat": 42.317508919430431, "lon": -71.064166259066042 }, "geometry": { "type": "Point", "coordinates": [ -71.064166259066042, 42.317508919430431 ] } },
{ "type": "Feature", "properties": { "id": 131, "sname": "Jackson Square T Stop", "lat": 42.322931171959489, "lon": -71.100141406059265 }, "geometry": { "type": "Point", "coordinates": [ -71.100141406059265, 42.322931171959489 ] } },
{ "type": "Feature", "properties": { "id": 132, "sname": "Summer St at Cutter St", "lat": 42.394002, "lon": -71.120406 }, "geometry": { "type": "Point", "coordinates": [ -71.120406, 42.394002 ] } },
{ "type": "Feature", "properties": { "id": 133, "sname": "Green Street T Stop - Green St at Amory St", "lat": 42.310579, "lon": -71.107341 }, "geometry": { "type": "Point", "coordinates": [ -71.107341, 42.310579 ] } },
{ "type": "Feature", "properties": { "id": 134, "sname": "Boylston St at Dartmouth St", "lat": 42.350413, "lon": -71.07655 }, "geometry": { "type": "Point", "coordinates": [ -71.07655, 42.350413 ] } },
{ "type": "Feature", "properties": { "id": 135, "sname": "ID Building East", "lat": 42.344827, "lon": -71.028664 }, "geometry": { "type": "Point", "coordinates": [ -71.028664, 42.344827 ] } },
{ "type": "Feature", "properties": { "id": 136, "sname": "ID Building West", "lat": 42.344796, "lon": -71.031614 }, "geometry": { "type": "Point", "coordinates": [ -71.031614, 42.344796 ] } },
{ "type": "Feature", "properties": { "id": 137, "sname": "Magoun Square at Trum Field", "lat": 42.398365, "lon": -71.107818 }, "geometry": { "type": "Point", "coordinates": [ -71.107818, 42.398365 ] } },
{ "type": "Feature", "properties": { "id": 138, "sname": "Newmarket Square T Stop - Massachusetts Ave at Newmarket Square", "lat": 42.326599, "lon": -71.066498 }, "geometry": { "type": "Point", "coordinates": [ -71.066498, 42.326599 ] } },
{ "type": "Feature", "properties": { "id": 139, "sname": "Dana Park", "lat": 42.361780439606044, "lon": -71.108099520206451 }, "geometry": { "type": "Point", "coordinates": [ -71.108099520206451, 42.361780439606044 ] } },
{ "type": "Feature", "properties": { "id": 140, "sname": "Danehy Park", "lat": 42.388966, "lon": -71.132788 }, "geometry": { "type": "Point", "coordinates": [ -71.132788, 42.388966 ] } },
{ "type": "Feature", "properties": { "id": 141, "sname": "Kendall Street", "lat": 42.363560158429891, "lon": -71.08216792345047 }, "geometry": { "type": "Point", "coordinates": [ -71.08216792345047, 42.363560158429891 ] } },
{ "type": "Feature", "properties": { "id": 142, "sname": "Alewife Station at Russell Field", "lat": 42.396105, "lon": -71.139459 }, "geometry": { "type": "Point", "coordinates": [ -71.139459, 42.396105 ] } },
{ "type": "Feature", "properties": { "id": 143, "sname": "EF - North Point Park", "lat": 42.369885, "lon": -71.069957 }, "geometry": { "type": "Point", "coordinates": [ -71.069957, 42.369885 ] } },
{ "type": "Feature", "properties": { "id": 144, "sname": "Rogers St & Land Blvd", "lat": 42.365757982148367, "lon": -71.076993942260728 }, "geometry": { "type": "Point", "coordinates": [ -71.076993942260728, 42.365757982148367 ] } },
{ "type": "Feature", "properties": { "id": 145, "sname": "Rindge Avenue - O&#8217;Neill Library", "lat": 42.392766, "lon": -71.129042 }, "geometry": { "type": "Point", "coordinates": [ -71.129042, 42.392766 ] } },
{ "type": "Feature", "properties": { "id": 146, "sname": "Murphy Skating Rink - 1880 Day Blvd", "lat": 42.336448, "lon": -71.023739 }, "geometry": { "type": "Point", "coordinates": [ -71.023739, 42.336448 ] } },
{ "type": "Feature", "properties": { "id": 149, "sname": "175 N Harvard St", "lat": 42.363796, "lon": -71.129164 }, "geometry": { "type": "Point", "coordinates": [ -71.129164, 42.363796 ] } },
{ "type": "Feature", "properties": { "id": 150, "sname": "State Street at Channel Center", "lat": 42.344137, "lon": -71.052608 }, "geometry": { "type": "Point", "coordinates": [ -71.052608, 42.344137 ] } },
{ "type": "Feature", "properties": { "id": 151, "sname": "John F Fitzgerald - Surface Road at India Street", "lat": 42.358155, "lon": -71.052163 }, "geometry": { "type": "Point", "coordinates": [ -71.052163, 42.358155 ] } },
{ "type": "Feature", "properties": { "id": 152, "sname": "Ink Block", "lat": 42.345901, "lon": -71.063187 }, "geometry": { "type": "Point", "coordinates": [ -71.063187, 42.345901 ] } },
{ "type": "Feature", "properties": { "id": 153, "sname": "8D OPS 03", "lat": 45.505086, "lon": -73.566921 }, "geometry": { "type": "Point", "coordinates": [ -73.566921, 45.505086 ] } },
{ "type": "Feature", "properties": { "id": 155, "sname": "Huntington Ave at Mass Art", "lat": 42.336519093043925, "lon": -71.098969243557804 }, "geometry": { "type": "Point", "coordinates": [ -71.098969243557804, 42.336519093043925 ] } },
{ "type": "Feature", "properties": { "id": 156, "sname": "Somerville Hospital", "lat": 42.390888017213385, "lon": -71.109625697135911 }, "geometry": { "type": "Point", "coordinates": [ -71.109625697135911, 42.390888017213385 ] } },
{ "type": "Feature", "properties": { "id": 157, "sname": "Seaport Blvd at Sleeper St", "lat": 42.353178091862524, "lon": -71.048173569233768 }, "geometry": { "type": "Point", "coordinates": [ -71.048173569233768, 42.353178091862524 ] } },
{ "type": "Feature", "properties": { "id": 158, "sname": "8D OPS 01", "lat": 0.0, "lon": 0.0 }, "geometry": { "type": "Point", "coordinates": [ 0.0, 0.0 ] } },
{ "type": "Feature", "properties": { "id": 159, "sname": "S Huntington Ave at Heath St", "lat": 42.327603870405724, "lon": -71.110891699790955 }, "geometry": { "type": "Point", "coordinates": [ -71.110891699790955, 42.327603870405724 ] } },
{ "type": "Feature", "properties": { "id": 160, "sname": "Wentworth Institute of Technology - Huntington Ave at Vancouver St", "lat": 42.337586010972387, "lon": -71.096270978450761 }, "geometry": { "type": "Point", "coordinates": [ -71.096270978450761, 42.337586010972387 ] } },
{ "type": "Feature", "properties": { "id": 161, "sname": "W Broadway at D St", "lat": 42.3391085, "lon": -71.0514432 }, "geometry": { "type": "Point", "coordinates": [ -71.0514432, 42.3391085 ] } },
{ "type": "Feature", "properties": { "id": 162, "sname": "Franklin Park - Seaver St at Humbolt Ave", "lat": 42.309796, "lon": -71.092225 }, "geometry": { "type": "Point", "coordinates": [ -71.092225, 42.309796 ] } },
{ "type": "Feature", "properties": { "id": 163, "sname": "The Lawn on D", "lat": 42.344792, "lon": -71.044024 }, "geometry": { "type": "Point", "coordinates": [ -71.044024, 42.344792 ] } },
{ "type": "Feature", "properties": { "id": 164, "sname": "Test 000e3", "lat": 0.0, "lon": 0.0 }, "geometry": { "type": "Point", "coordinates": [ 0.0, 0.0 ] } },
{ "type": "Feature", "properties": { "id": 167, "sname": "Ryan Playground - Dorchester Ave at Harbor View St", "lat": 42.317642, "lon": -71.056664 }, "geometry": { "type": "Point", "coordinates": [ -71.056664, 42.317642 ] } },
{ "type": "Feature", "properties": { "id": 168, "sname": "Harvard Ave at Brainerd Rd", "lat": 42.349561885454115, "lon": -71.1302706227616 }, "geometry": { "type": "Point", "coordinates": [ -71.1302706227616, 42.349561885454115 ] } },
{ "type": "Feature", "properties": { "id": 169, "sname": "Edwards Playground - Main St at Eden St", "lat": 42.378965, "lon": -71.068607 }, "geometry": { "type": "Point", "coordinates": [ -71.068607, 42.378965 ] } },
{ "type": "Feature", "properties": { "id": 170, "sname": "Franklin Park Zoo - Franklin Park Rd at Blue Hill Ave", "lat": 42.303469, "lon": -71.085347 }, "geometry": { "type": "Point", "coordinates": [ -71.085347, 42.303469 ] } },
{ "type": "Feature", "properties": { "id": 171, "sname": "Bunker Hill Community College", "lat": 42.37408991426522, "lon": -71.06905996799469 }, "geometry": { "type": "Point", "coordinates": [ -71.06905996799469, 42.37408991426522 ] } },
{ "type": "Feature", "properties": { "id": 173, "sname": "Savin Hill T Stop - S Sydney St at Bay St", "lat": 42.3106, "lon": -71.0539 }, "geometry": { "type": "Point", "coordinates": [ -71.0539, 42.3106 ] } },
{ "type": "Feature", "properties": { "id": 174, "sname": "Washington St at Brock St", "lat": 42.348952846695106, "lon": -71.160316765308366 }, "geometry": { "type": "Point", "coordinates": [ -71.160316765308366, 42.348952846695106 ] } },
{ "type": "Feature", "properties": { "id": 175, "sname": "Brighton Center - Washington St at Cambridge St", "lat": 42.34894857235593, "lon": -71.150271892547607 }, "geometry": { "type": "Point", "coordinates": [ -71.150271892547607, 42.34894857235593 ] } },
{ "type": "Feature", "properties": { "id": 176, "sname": "Lesley University", "lat": 42.386748020450561, "lon": -71.119018793106079 }, "geometry": { "type": "Point", "coordinates": [ -71.119018793106079, 42.386748020450561 ] } },
{ "type": "Feature", "properties": { "id": 177, "sname": "University Park", "lat": 42.36264779118595, "lon": -71.100060939788804 }, "geometry": { "type": "Point", "coordinates": [ -71.100060939788804, 42.36264779118595 ] } },
{ "type": "Feature", "properties": { "id": 178, "sname": "MIT Pacific St at Purrington St", "lat": 42.359573201090434, "lon": -71.101294755935669 }, "geometry": { "type": "Point", "coordinates": [ -71.101294755935669, 42.359573201090434 ] } },
{ "type": "Feature", "properties": { "id": 179, "sname": "MIT Vassar St", "lat": 42.355601213279272, "lon": -71.103944778442369 }, "geometry": { "type": "Point", "coordinates": [ -71.103944778442369, 42.355601213279272 ] } },
{ "type": "Feature", "properties": { "id": 180, "sname": "Mt Auburn", "lat": 42.374786287063841, "lon": -71.133202314376831 }, "geometry": { "type": "Point", "coordinates": [ -71.133202314376831, 42.374786287063841 ] } },
{ "type": "Feature", "properties": { "id": 181, "sname": "Huron Ave At Vassal Lane", "lat": 42.381650612901176, "lon": -71.134269814983782 }, "geometry": { "type": "Point", "coordinates": [ -71.134269814983782, 42.381650612901176 ] } },
{ "type": "Feature", "properties": { "id": 182, "sname": "Museum of Science", "lat": 42.367690180244843, "lon": -71.07116281986238 }, "geometry": { "type": "Point", "coordinates": [ -71.07116281986238, 42.367690180244843 ] } },
{ "type": "Feature", "properties": { "id": 183, "sname": "Alewife MBTA at Steel Place", "lat": 42.395588457167094, "lon": -71.142606139183044 }, "geometry": { "type": "Point", "coordinates": [ -71.142606139183044, 42.395588457167094 ] } },
{ "type": "Feature", "properties": { "id": 184, "sname": "Sidney Research Campus\/ Erie Street at Waverly", "lat": 42.35775309465199, "lon": -71.103934049606309 }, "geometry": { "type": "Point", "coordinates": [ -71.103934049606309, 42.35775309465199 ] } },
{ "type": "Feature", "properties": { "id": 185, "sname": "Third at Binney", "lat": 42.365444861373994, "lon": -71.082771420478807 }, "geometry": { "type": "Point", "coordinates": [ -71.082771420478807, 42.365444861373994 ] } },
{ "type": "Feature", "properties": { "id": 186, "sname": "Congress St at Northern Ave", "lat": 42.3481, "lon": -71.03764 }, "geometry": { "type": "Point", "coordinates": [ -71.03764, 42.3481 ] } },
{ "type": "Feature", "properties": { "id": 187, "sname": "Cypress St at Clark Playground", "lat": 42.327843174786857, "lon": -71.1253622174263 }, "geometry": { "type": "Point", "coordinates": [ -71.1253622174263, 42.327843174786857 ] } },
{ "type": "Feature", "properties": { "id": 188, "sname": "Foss Park", "lat": 42.39108438146733, "lon": -71.09039425849916 }, "geometry": { "type": "Point", "coordinates": [ -71.09039425849916, 42.39108438146733 ] } },
{ "type": "Feature", "properties": { "id": 189, "sname": "Kendall T", "lat": 42.362427842912396, "lon": -71.084954738616929 }, "geometry": { "type": "Point", "coordinates": [ -71.084954738616929, 42.362427842912396 ] } },
{ "type": "Feature", "properties": { "id": 190, "sname": "Nashua Street at Red Auerbach Way", "lat": 42.365673, "lon": -71.064263 }, "geometry": { "type": "Point", "coordinates": [ -71.064263, 42.365673 ] } },
{ "type": "Feature", "properties": { "id": 191, "sname": "Tappan St at Brookline Hills MBTA", "lat": 42.332096063019364, "lon": -71.128458827734008 }, "geometry": { "type": "Point", "coordinates": [ -71.128458827734008, 42.332096063019364 ] } },
{ "type": "Feature", "properties": { "id": 192, "sname": "Purchase St at Pearl St", "lat": 42.354659, "lon": -71.053181 }, "geometry": { "type": "Point", "coordinates": [ -71.053181, 42.354659 ] } },
{ "type": "Feature", "properties": { "id": 193, "sname": "Brookline Village - Station Street @ MBTA", "lat": 42.33289074055233, "lon": -71.116583347320571 }, "geometry": { "type": "Point", "coordinates": [ -71.116583347320571, 42.33289074055233 ] } },
{ "type": "Feature", "properties": { "id": 194, "sname": "Broadway St at Mt Pleasant St", "lat": 42.386141411639571, "lon": -71.078281402587891 }, "geometry": { "type": "Point", "coordinates": [ -71.078281402587891, 42.386141411639571 ] } },
{ "type": "Feature", "properties": { "id": 195, "sname": "Child St at North St", "lat": 42.371504941003188, "lon": -71.072493121209845 }, "geometry": { "type": "Point", "coordinates": [ -71.072493121209845, 42.371504941003188 ] } },
{ "type": "Feature", "properties": { "id": 196, "sname": "Roxbury YMCA - Warren St at MLK Blvd", "lat": 42.317873293456024, "lon": -71.082430779933944 }, "geometry": { "type": "Point", "coordinates": [ -71.082430779933944, 42.317873293456024 ] } },
{ "type": "Feature", "properties": { "id": 197, "sname": "MLK Blvd at Washington St", "lat": 42.321438141831948, "lon": -71.091260612010956 }, "geometry": { "type": "Point", "coordinates": [ -71.091260612010956, 42.321438141831948 ] } },
{ "type": "Feature", "properties": { "id": 199, "sname": "Upham&#8217;s Corner T Stop - Magnolia St at Dudley St", "lat": 42.318697341722434, "lon": -71.06978148221971 }, "geometry": { "type": "Point", "coordinates": [ -71.06978148221971, 42.318697341722434 ] } },
{ "type": "Feature", "properties": { "id": 200, "sname": "Washington St at Melnea Cass Blvd", "lat": 42.332817, "lon": -71.081198 }, "geometry": { "type": "Point", "coordinates": [ -71.081198, 42.332817 ] } },
{ "type": "Feature", "properties": { "id": 201, "sname": "NCAAA - Walnut Ave at Crawford St", "lat": 42.316902, "lon": -71.091946 }, "geometry": { "type": "Point", "coordinates": [ -71.091946, 42.316902 ] } },
{ "type": "Feature", "properties": { "id": 202, "sname": "Grove Hall Library - 41 Geneva Ave", "lat": 42.30791, "lon": -71.080952 }, "geometry": { "type": "Point", "coordinates": [ -71.080952, 42.30791 ] } },
{ "type": "Feature", "properties": { "id": 203, "sname": "Columbia Rd at Ceylon St", "lat": 42.309572, "lon": -71.0729 }, "geometry": { "type": "Point", "coordinates": [ -71.0729, 42.309572 ] } },
{ "type": "Feature", "properties": { "id": 204, "sname": "Walnut Ave at Warren St", "lat": 42.324081, "lon": -71.083235 }, "geometry": { "type": "Point", "coordinates": [ -71.083235, 42.324081 ] } },
{ "type": "Feature", "properties": { "id": 205, "sname": "Bowdoin St at Quincy St", "lat": 42.307852242385032, "lon": -71.065122485160828 }, "geometry": { "type": "Point", "coordinates": [ -71.065122485160828, 42.307852242385032 ] } },
{ "type": "Feature", "properties": { "id": 206, "sname": "Government Center - Cambridge St at Court St", "lat": 42.359802515995533, "lon": -71.059607826264255 }, "geometry": { "type": "Point", "coordinates": [ -71.059607826264255, 42.359802515995533 ] } },
{ "type": "Feature", "properties": { "id": 207, "sname": "Faneuil St at Market St", "lat": 42.35484, "lon": -71.150226 }, "geometry": { "type": "Point", "coordinates": [ -71.150226, 42.35484 ] } },
{ "type": "Feature", "properties": { "id": 208, "sname": "Oak Square - 615 Washington St", "lat": 42.35057, "lon": -71.166491 }, "geometry": { "type": "Point", "coordinates": [ -71.166491, 42.35057 ] } },
{ "type": "Feature", "properties": { "id": 209, "sname": "Chelsea St at Saratoga St", "lat": 42.379772, "lon": -71.027448 }, "geometry": { "type": "Point", "coordinates": [ -71.027448, 42.379772 ] } },
{ "type": "Feature", "properties": { "id": 210, "sname": "Bennington St at Byron St", "lat": 42.383532520117896, "lon": -71.016190946102142 }, "geometry": { "type": "Point", "coordinates": [ -71.016190946102142, 42.383532520117896 ] } },
{ "type": "Feature", "properties": { "id": 211, "sname": "Piers Park", "lat": 42.364892932664795, "lon": -71.03497177362442 }, "geometry": { "type": "Point", "coordinates": [ -71.03497177362442, 42.364892932664795 ] } },
{ "type": "Feature", "properties": { "id": 212, "sname": "Maverick Square - Lewis Mall", "lat": 42.368844082898356, "lon": -71.039778292179108 }, "geometry": { "type": "Point", "coordinates": [ -71.039778292179108, 42.368844082898356 ] } },
{ "type": "Feature", "properties": { "id": 213, "sname": "East Boston Neighborhood Health Center - 20 Maverick Square", "lat": 42.369536, "lon": -71.039431 }, "geometry": { "type": "Point", "coordinates": [ -71.039431, 42.369536 ] } },
{ "type": "Feature", "properties": { "id": 214, "sname": "Airport T Stop - Bremen St at Brooks St", "lat": 42.37530443828819, "lon": -71.031263045533706 }, "geometry": { "type": "Point", "coordinates": [ -71.031263045533706, 42.37530443828819 ] } },
{ "type": "Feature", "properties": { "id": 215, "sname": "The Eddy - New St at Sumner St", "lat": 42.370744, "lon": -71.044201 }, "geometry": { "type": "Point", "coordinates": [ -71.044201, 42.370744 ] } },
{ "type": "Feature", "properties": { "id": 216, "sname": "Glendon St at Condor St", "lat": 42.38240377674137, "lon": -71.03024303913115 }, "geometry": { "type": "Point", "coordinates": [ -71.03024303913115, 42.38240377674137 ] } },
{ "type": "Feature", "properties": { "id": 217, "sname": "Orient Heights T Stop - Bennington St at Saratoga St", "lat": 42.386781, "lon": -71.006098 }, "geometry": { "type": "Point", "coordinates": [ -71.006098, 42.386781 ] } },
{ "type": "Feature", "properties": { "id": 218, "sname": "Watermark Seaport - Boston Wharf Rd at Seaport Blvd", "lat": 42.351586001198456, "lon": -71.045692563056932 }, "geometry": { "type": "Point", "coordinates": [ -71.045692563056932, 42.351586001198456 ] } },
{ "type": "Feature", "properties": { "id": 219, "sname": "Boston East - 126 Border St", "lat": 42.373312125824704, "lon": -71.041020080629096 }, "geometry": { "type": "Point", "coordinates": [ -71.041020080629096, 42.373312125824704 ] } },
{ "type": "Feature", "properties": { "id": 220, "sname": "Grove St at Community Path", "lat": 42.396383879503205, "lon": -71.120105087757111 }, "geometry": { "type": "Point", "coordinates": [ -71.120105087757111, 42.396383879503205 ] } },
{ "type": "Feature", "properties": { "id": 221, "sname": "Verizon Innovation Hub 10 Ware Street", "lat": 42.372508649972609, "lon": -71.113053560256944 }, "geometry": { "type": "Point", "coordinates": [ -71.113053560256944, 42.372508649972609 ] } },
{ "type": "Feature", "properties": { "id": 222, "sname": "Troy Boston", "lat": 42.343749, "lon": -71.062256 }, "geometry": { "type": "Point", "coordinates": [ -71.062256, 42.343749 ] } },
{ "type": "Feature", "properties": { "id": 224, "sname": "Fresh Pond Reservation", "lat": 42.382678275218552, "lon": -71.143478951426005 }, "geometry": { "type": "Point", "coordinates": [ -71.143478951426005, 42.382678275218552 ] } },
{ "type": "Feature", "properties": { "id": 225, "sname": "Cambridge Dept. of Public Works -147 Hampshire St.", "lat": 42.371197277594142, "lon": -71.097598671913161 }, "geometry": { "type": "Point", "coordinates": [ -71.097598671913161, 42.371197277594142 ] } },
{ "type": "Feature", "properties": { "id": 226, "sname": "Commonwealth Ave At Babcock St", "lat": 42.351547347913751, "lon": -71.121262460947051 }, "geometry": { "type": "Point", "coordinates": [ -71.121262460947051, 42.351547347913751 ] } },
{ "type": "Feature", "properties": { "id": 227, "sname": "Silber Way", "lat": 42.349495995140025, "lon": -71.100575923919692 }, "geometry": { "type": "Point", "coordinates": [ -71.100575923919692, 42.349495995140025 ] } },
{ "type": "Feature", "properties": { "id": 228, "sname": "One Memorial Drive", "lat": 42.361619320766849, "lon": -71.080435505209593 }, "geometry": { "type": "Point", "coordinates": [ -71.080435505209593, 42.361619320766849 ] } },
{ "type": "Feature", "properties": { "id": 229, "sname": "8D QC Station 01", "lat": 0.0, "lon": 0.0 }, "geometry": { "type": "Point", "coordinates": [ 0.0, 0.0 ] } },
{ "type": "Feature", "properties": { "id": 230, "sname": "8D QC Station 02", "lat": 0.0, "lon": 0.0 }, "geometry": { "type": "Point", "coordinates": [ 0.0, 0.0 ] } },
{ "type": "Feature", "properties": { "id": 231, "sname": "Washington St at Myrtle St", "lat": 42.381721157825147, "lon": -71.083766501524224 }, "geometry": { "type": "Point", "coordinates": [ -71.083766501524224, 42.381721157825147 ] } },
{ "type": "Feature", "properties": { "id": 232, "sname": "Four Corners - 157 Washington St", "lat": 42.304127927390155, "lon": -71.07929527759552 }, "geometry": { "type": "Point", "coordinates": [ -71.07929527759552, 42.304127927390155 ] } },
{ "type": "Feature", "properties": { "id": 233, "sname": "St Mary&#8217;s", "lat": 42.346197076555455, "lon": -71.107286810874939 }, "geometry": { "type": "Point", "coordinates": [ -71.107286810874939, 42.346197076555455 ] } },
{ "type": "Feature", "properties": { "id": 234, "sname": "Broadway at Central St", "lat": 42.395171501215749, "lon": -71.098505919821946 }, "geometry": { "type": "Point", "coordinates": [ -71.098505919821946, 42.395171501215749 ] } },
{ "type": "Feature", "properties": { "id": 235, "sname": "East Somerville Library (Broadway and Illinois)", "lat": 42.3876281075134, "lon": -71.083187162876129 }, "geometry": { "type": "Point", "coordinates": [ -71.083187162876129, 42.3876281075134 ] } },
{ "type": "Feature", "properties": { "id": 236, "sname": "Assembly Square T", "lat": 42.392232840046283, "lon": -71.077466011047363 }, "geometry": { "type": "Point", "coordinates": [ -71.077466011047363, 42.392232840046283 ] } },
{ "type": "Feature", "properties": { "id": 237, "sname": "699 Mt Auburn St", "lat": 42.374976592157154, "lon": -71.148630306306586 }, "geometry": { "type": "Point", "coordinates": [ -71.148630306306586, 42.374976592157154 ] } },
{ "type": "Feature", "properties": { "id": 238, "sname": "Mass Ave at Hadley\/Walden", "lat": 42.39138548863825, "lon": -71.12288117408751 }, "geometry": { "type": "Point", "coordinates": [ -71.12288117408751, 42.39138548863825 ] } },
{ "type": "Feature", "properties": { "id": 239, "sname": "Community Path at Cedar Street", "lat": 42.394072236658843, "lon": -71.111336946487441 }, "geometry": { "type": "Point", "coordinates": [ -71.111336946487441, 42.394072236658843 ] } },
{ "type": "Feature", "properties": { "id": 240, "sname": "Harvard St at Greene-Rose Heritage Park", "lat": 42.365994060307891, "lon": -71.09516322612761 }, "geometry": { "type": "Point", "coordinates": [ -71.09516322612761, 42.365994060307891 ] } },
{ "type": "Feature", "properties": { "id": 241, "sname": "Mattapan T Stop", "lat": 42.267902, "lon": -71.093641 }, "geometry": { "type": "Point", "coordinates": [ -71.093641, 42.267902 ] } },
{ "type": "Feature", "properties": { "id": 242, "sname": "Roslindale Village - South St", "lat": 42.287072, "lon": -71.127754 }, "geometry": { "type": "Point", "coordinates": [ -71.127754, 42.287072 ] } },
{ "type": "Feature", "properties": { "id": 243, "sname": "Commonwealth Ave at Kelton St", "lat": 42.348368023549902, "lon": -71.139976214662966 }, "geometry": { "type": "Point", "coordinates": [ -71.139976214662966, 42.348368023549902 ] } },
{ "type": "Feature", "properties": { "id": 244, "sname": "Archdale Rd at Washington St", "lat": 42.292706, "lon": -71.121145 }, "geometry": { "type": "Point", "coordinates": [ -71.121145, 42.292706 ] } },
{ "type": "Feature", "properties": { "id": 245, "sname": "Blue Hill Ave at Almont St", "lat": 42.274545255287578, "lon": -71.093720160515659 }, "geometry": { "type": "Point", "coordinates": [ -71.093720160515659, 42.274545255287578 ] } },
{ "type": "Feature", "properties": { "id": 246, "sname": "Roslindale Village - Washington St", "lat": 42.2861532, "lon": -71.1283744 }, "geometry": { "type": "Point", "coordinates": [ -71.128374400000013, 42.2861532 ] } },
{ "type": "Feature", "properties": { "id": 247, "sname": "Boylston St at Jersey St", "lat": 42.344695708662222, "lon": -71.09723791480063 }, "geometry": { "type": "Point", "coordinates": [ -71.09723791480063, 42.344695708662222 ] } },
{ "type": "Feature", "properties": { "id": 248, "sname": "Morton St T", "lat": 42.280753829614476, "lon": -71.086218311502307 }, "geometry": { "type": "Point", "coordinates": [ -71.086218311502307, 42.280753829614476 ] } },
{ "type": "Feature", "properties": { "id": 249, "sname": "Commonwealth Ave at Chiswick Rd", "lat": 42.340217741659202, "lon": -71.151730939927802 }, "geometry": { "type": "Point", "coordinates": [ -71.151730939927802, 42.340217741659202 ] } },
{ "type": "Feature", "properties": { "id": 250, "sname": "Park Plaza at Columbus Ave", "lat": 42.35186, "lon": -71.067688 }, "geometry": { "type": "Point", "coordinates": [ -71.067688, 42.35186 ] } },
{ "type": "Feature", "properties": { "id": 252, "sname": "Cleveland Circle", "lat": 42.335530918723187, "lon": -71.150727868080139 }, "geometry": { "type": "Point", "coordinates": [ -71.150727868080139, 42.335530918723187 ] } },
{ "type": "Feature", "properties": { "id": 253, "sname": "Thetford Ave at Norfolk St", "lat": 42.286251, "lon": -71.079463 }, "geometry": { "type": "Point", "coordinates": [ -71.079463, 42.286251 ] } },
{ "type": "Feature", "properties": { "id": 254, "sname": "Talbot Ave At Blue Hill Ave", "lat": 42.2945833, "lon": -71.087111 }, "geometry": { "type": "Point", "coordinates": [ -71.087111, 42.2945833 ] } },
{ "type": "Feature", "properties": { "id": 255, "sname": "Park St at Norwell St", "lat": 42.2944167, "lon": -71.0783056 }, "geometry": { "type": "Point", "coordinates": [ -71.0783056, 42.2944167 ] } },
{ "type": "Feature", "properties": { "id": 256, "sname": "Washington St at Talbot Ave", "lat": 42.290333, "lon": -71.071806 }, "geometry": { "type": "Point", "coordinates": [ -71.071806, 42.290333 ] } },
{ "type": "Feature", "properties": { "id": 257, "sname": "Codman Square Library", "lat": 42.2873611, "lon": -71.0711111 }, "geometry": { "type": "Point", "coordinates": [ -71.0711111, 42.2873611 ] } },
{ "type": "Feature", "properties": { "id": 258, "sname": "Gallivan Blvd at Adams St", "lat": 42.282975678403048, "lon": -71.054666982963681 }, "geometry": { "type": "Point", "coordinates": [ -71.054666982963681, 42.282975678403048 ] } },
{ "type": "Feature", "properties": { "id": 259, "sname": "Washington St at Bradlee St", "lat": 42.297722, "lon": -71.073 }, "geometry": { "type": "Point", "coordinates": [ -71.073, 42.297722 ] } },
{ "type": "Feature", "properties": { "id": 260, "sname": "Fields Corner T Stop", "lat": 42.2996667, "lon": -71.0605833 }, "geometry": { "type": "Point", "coordinates": [ -71.0605833, 42.2996667 ] } },
{ "type": "Feature", "properties": { "id": 262, "sname": "Faneuil St at Arlington St", "lat": 42.3528611, "lon": -71.1600278 }, "geometry": { "type": "Point", "coordinates": [ -71.1600278, 42.3528611 ] } },
{ "type": "Feature", "properties": { "id": 263, "sname": "Mattapan Library", "lat": 42.2773889, "lon": -71.09325 }, "geometry": { "type": "Point", "coordinates": [ -71.09325, 42.2773889 ] } },
{ "type": "Feature", "properties": { "id": 264, "sname": "Washington St at Egremont Rd", "lat": 42.3429444, "lon": -71.1413333 }, "geometry": { "type": "Point", "coordinates": [ -71.1413333, 42.3429444 ] } },
{ "type": "Feature", "properties": { "id": 274, "sname": "Bennington St at Constitution Beach", "lat": 42.385249, "lon": -71.010601 }, "geometry": { "type": "Point", "coordinates": [ -71.010601, 42.385249 ] } },
{ "type": "Feature", "properties": { "id": 277, "sname": "Charlestown Navy Yard", "lat": 42.374010653844927, "lon": -71.0548335313797 }, "geometry": { "type": "Point", "coordinates": [ -71.0548335313797, 42.374010653844927 ] } },
{ "type": "Feature", "properties": { "id": 278, "sname": "Centre St at Seaverns Ave", "lat": 42.312120283566095, "lon": -71.114298068077915 }, "geometry": { "type": "Point", "coordinates": [ -71.114298068077915, 42.312120283566095 ] } },
{ "type": "Feature", "properties": { "id": 279, "sname": "Williams St at Washington St", "lat": 42.306539, "lon": -71.107669 }, "geometry": { "type": "Point", "coordinates": [ -71.107669, 42.306539 ] } },
{ "type": "Feature", "properties": { "id": 280, "sname": "Main St at Baldwin St", "lat": 42.380857, "lon": -71.070629 }, "geometry": { "type": "Point", "coordinates": [ -71.070629, 42.380857 ] } },
{ "type": "Feature", "properties": { "id": 281, "sname": "Medford St at Charlestown BCYF", "lat": 42.380584, "lon": -71.060875 }, "geometry": { "type": "Point", "coordinates": [ -71.060875, 42.380584 ] } },
{ "type": "Feature", "properties": { "id": 282, "sname": "Stony Brook T Stop", "lat": 42.316966, "lon": -71.104374 }, "geometry": { "type": "Point", "coordinates": [ -71.104374, 42.316966 ] } },
{ "type": "Feature", "properties": { "id": 283, "sname": "Main St at Thompson Sq", "lat": 42.374917, "lon": -71.063829 }, "geometry": { "type": "Point", "coordinates": [ -71.063829, 42.374917 ] } },
{ "type": "Feature", "properties": { "id": 284, "sname": "One Brigham Circle", "lat": 42.333919727205775, "lon": -71.104467772038333 }, "geometry": { "type": "Point", "coordinates": [ -71.104467772038333, 42.333919727205775 ] } },
{ "type": "Feature", "properties": { "id": 286, "sname": "30 Dane St. (former)", "lat": 42.381122846300968, "lon": -71.10410027224134 }, "geometry": { "type": "Point", "coordinates": [ -71.10410027224134, 42.381122846300968 ] } },
{ "type": "Feature", "properties": { "id": 293, "sname": "Bartlett St at John Elliot Sq", "lat": 42.329463259225491, "lon": -71.090158205524858 }, "geometry": { "type": "Point", "coordinates": [ -71.090158205524858, 42.329463259225491 ] } },
{ "type": "Feature", "properties": { "id": 294, "sname": "Deerfield St at Commonwealth Ave", "lat": 42.349205689770692, "lon": -71.097270630416446 }, "geometry": { "type": "Point", "coordinates": [ -71.097270630416446, 42.349205689770692 ] } },
{ "type": "Feature", "properties": { "id": 295, "sname": "Columbia Rd at Tierney Community Center", "lat": 42.330232646849289, "lon": -71.050574146302097 }, "geometry": { "type": "Point", "coordinates": [ -71.050574146302097, 42.330232646849289 ] } },
{ "type": "Feature", "properties": { "id": 296, "sname": "Farragut Rd at E. 6th St", "lat": 42.3334, "lon": -71.02495 }, "geometry": { "type": "Point", "coordinates": [ -71.02495, 42.3334 ] } },
{ "type": "Feature", "properties": { "id": 299, "sname": "Harrison Ave at Mullins Way (former)", "lat": 42.345108570378521, "lon": -71.063920781198249 }, "geometry": { "type": "Point", "coordinates": [ -71.063920781198249, 42.345108570378521 ] } },
{ "type": "Feature", "properties": { "id": 300, "sname": "Tremont St at Northampton St (former)", "lat": 42.338849706908093, "lon": -71.081406138928301 }, "geometry": { "type": "Point", "coordinates": [ -71.081406138928301, 42.338849706908093 ] } },
{ "type": "Feature", "properties": { "id": 302, "sname": "Harrison Ave at Bennet St (former)", "lat": 42.3493102175903, "lon": -71.062105000019059 }, "geometry": { "type": "Point", "coordinates": [ -71.062105000019059, 42.3493102175903 ] } },
{ "type": "Feature", "properties": { "id": 306, "sname": "Blue Hill Ave at Southwood St (former)", "lat": 42.31784, "lon": -71.07796 }, "geometry": { "type": "Point", "coordinates": [ -71.07796, 42.31784 ] } },
{ "type": "Feature", "properties": { "id": 307, "sname": "Broadway T Stop", "lat": 42.3428, "lon": -71.05751 }, "geometry": { "type": "Point", "coordinates": [ -71.05751, 42.3428 ] } },
{ "type": "Feature", "properties": { "id": 308, "sname": "BCBS Hingham", "lat": 42.167225555416543, "lon": -70.905557833702915 }, "geometry": { "type": "Point", "coordinates": [ -70.905557833702915, 42.167225555416543 ] } },
{ "type": "Feature", "properties": { "id": 311, "sname": "Vassal Lane at Tobin\/VLUS (former)", "lat": 42.383928224564585, "lon": -71.139623504177507 }, "geometry": { "type": "Point", "coordinates": [ -71.139623504177507, 42.383928224564585 ] } },
{ "type": "Feature", "properties": { "id": 317, "sname": "BCBS Quincy", "lat": 42.276004987566651, "lon": -71.039249822679267 }, "geometry": { "type": "Point", "coordinates": [ -71.039249822679267, 42.276004987566651 ] } },
{ "type": "Feature", "properties": { "id": 318, "sname": "Ames St at Broadway", "lat": 42.3636929, "lon": -71.0875672 }, "geometry": { "type": "Point", "coordinates": [ -71.0875672, 42.3636929 ] } },
{ "type": "Feature", "properties": { "id": 319, "sname": "84 Cambridgepark Dr", "lat": 42.3936, "lon": -71.143941 }, "geometry": { "type": "Point", "coordinates": [ -71.143941, 42.3936 ] } },
{ "type": "Feature", "properties": { "id": 327, "sname": "Main St at Thompson Sq", "lat": 42.374878467440965, "lon": -71.063834987671697 }, "geometry": { "type": "Point", "coordinates": [ -71.063834987671697, 42.374878467440965 ] } },
{ "type": "Feature", "properties": { "id": 328, "sname": "Grove St at Community Path", "lat": 42.396386809455002, "lon": -71.120113060060248 }, "geometry": { "type": "Point", "coordinates": [ -71.120113060060248, 42.396386809455002 ] } },
{ "type": "Feature", "properties": { "id": 329, "sname": "Washington St at Myrtle St", "lat": 42.381699831636809, "lon": -71.083775889173921 }, "geometry": { "type": "Point", "coordinates": [ -71.083775889173921, 42.381699831636809 ] } },
{ "type": "Feature", "properties": { "id": 330, "sname": "30 Dane St.", "lat": 42.381001430380529, "lon": -71.104025226131839 }, "geometry": { "type": "Point", "coordinates": [ -71.104025226131839, 42.381001430380529 ] } },
{ "type": "Feature", "properties": { "id": 331, "sname": "Huntington Ave at Mass Art", "lat": 42.336585554561147, "lon": -71.098869964662299 }, "geometry": { "type": "Point", "coordinates": [ -71.098869964662299, 42.336585554561147 ] } },
{ "type": "Feature", "properties": { "id": 332, "sname": "Harvard Ave at Brainerd Rd", "lat": 42.349530168903755, "lon": -71.130227707417347 }, "geometry": { "type": "Point", "coordinates": [ -71.130227707417347, 42.349530168903755 ] } },
{ "type": "Feature", "properties": { "id": 333, "sname": "699 Mt Auburn St", "lat": 42.375002351378313, "lon": -71.148716136995063 }, "geometry": { "type": "Point", "coordinates": [ -71.148716136995063, 42.375002351378313 ] } },
{ "type": "Feature", "properties": { "id": 334, "sname": "Mass Ave at Hadley\/Walden", "lat": 42.39120971915856, "lon": -71.122607551606052 }, "geometry": { "type": "Point", "coordinates": [ -71.122607551606052, 42.39120971915856 ] } },
{ "type": "Feature", "properties": { "id": 335, "sname": "Harvard St at Greene-Rose Heritage Park", "lat": 42.365994328674368, "lon": -71.095222216144975 }, "geometry": { "type": "Point", "coordinates": [ -71.095222216144975, 42.365994328674368 ] } },
{ "type": "Feature", "properties": { "id": 336, "sname": "Mattapan T Stop", "lat": 42.267902, "lon": -71.093641 }, "geometry": { "type": "Point", "coordinates": [ -71.093641, 42.267902 ] } },
{ "type": "Feature", "properties": { "id": 337, "sname": "Roslindale Village - South St", "lat": 42.287072, "lon": -71.127754 }, "geometry": { "type": "Point", "coordinates": [ -71.127754, 42.287072 ] } },
{ "type": "Feature", "properties": { "id": 338, "sname": "Commonwealth Ave at Kelton St", "lat": 42.348358628170452, "lon": -71.139972172768466 }, "geometry": { "type": "Point", "coordinates": [ -71.139972172768466, 42.348358628170452 ] } },
{ "type": "Feature", "properties": { "id": 339, "sname": "Archdale Rd at Washington St", "lat": 42.292665928727253, "lon": -71.121195387140688 }, "geometry": { "type": "Point", "coordinates": [ -71.121195387140688, 42.292665928727253 ] } },
{ "type": "Feature", "properties": { "id": 340, "sname": "Blue Hill Ave at Almont St", "lat": 42.274620671812244, "lon": -71.093725524933689 }, "geometry": { "type": "Point", "coordinates": [ -71.093725524933689, 42.274620671812244 ] } },
{ "type": "Feature", "properties": { "id": 341, "sname": "Roslindale Village - Washington St", "lat": 42.286307160108073, "lon": -71.128205321820133 }, "geometry": { "type": "Point", "coordinates": [ -71.128205321820133, 42.286307160108073 ] } },
{ "type": "Feature", "properties": { "id": 342, "sname": "Boylston St at Jersey St", "lat": 42.344650628878313, "lon": -71.097325012269721 }, "geometry": { "type": "Point", "coordinates": [ -71.097325012269721, 42.344650628878313 ] } },
{ "type": "Feature", "properties": { "id": 343, "sname": "Morton St T", "lat": 42.280725142920296, "lon": -71.086172424347751 }, "geometry": { "type": "Point", "coordinates": [ -71.086172424347751, 42.280725142920296 ] } },
{ "type": "Feature", "properties": { "id": 344, "sname": "Commonwealth Ave at Chiswick Rd", "lat": 42.340246447688891, "lon": -71.151688061745517 }, "geometry": { "type": "Point", "coordinates": [ -71.151688061745517, 42.340246447688891 ] } },
{ "type": "Feature", "properties": { "id": 345, "sname": "Park Plaza at Charles St", "lat": 42.351828068920682, "lon": -71.067811381117281 }, "geometry": { "type": "Point", "coordinates": [ -71.067811381117281, 42.351828068920682 ] } },
{ "type": "Feature", "properties": { "id": 346, "sname": "Cleveland Circle", "lat": 42.335543083570826, "lon": -71.150615196720508 }, "geometry": { "type": "Point", "coordinates": [ -71.150615196720508, 42.335543083570826 ] } },
{ "type": "Feature", "properties": { "id": 347, "sname": "Thetford Ave at Norfolk St", "lat": 42.286212948246096, "lon": -71.079429313722358 }, "geometry": { "type": "Point", "coordinates": [ -71.079429313722358, 42.286212948246096 ] } },
{ "type": "Feature", "properties": { "id": 348, "sname": "Talbot Ave At Blue Hill Ave", "lat": 42.2945833, "lon": -71.087111 }, "geometry": { "type": "Point", "coordinates": [ -71.087111, 42.2945833 ] } },
{ "type": "Feature", "properties": { "id": 349, "sname": "Washington St at Talbot Ave", "lat": 42.290333, "lon": -71.071806 }, "geometry": { "type": "Point", "coordinates": [ -71.071806, 42.290333 ] } },
{ "type": "Feature", "properties": { "id": 350, "sname": "Codman Square Library", "lat": 42.2873611, "lon": -71.071111 }, "geometry": { "type": "Point", "coordinates": [ -71.071111, 42.2873611 ] } },
{ "type": "Feature", "properties": { "id": 351, "sname": "Faneuil St at Arlington St", "lat": 42.352766205456064, "lon": -71.159884855333075 }, "geometry": { "type": "Point", "coordinates": [ -71.159884855333075, 42.352766205456064 ] } },
{ "type": "Feature", "properties": { "id": 352, "sname": "Ring Rd", "lat": 42.348278385426262, "lon": -71.080448553148017 }, "geometry": { "type": "Point", "coordinates": [ -71.080448553148017, 42.348278385426262 ] } },
{ "type": "Feature", "properties": { "id": 353, "sname": "Mattapan Library", "lat": 42.2773889, "lon": -71.09325 }, "geometry": { "type": "Point", "coordinates": [ -71.09325, 42.2773889 ] } },
{ "type": "Feature", "properties": { "id": 354, "sname": "Washington St at Egremont Rd", "lat": 42.342868350719598, "lon": -71.141278408558719 }, "geometry": { "type": "Point", "coordinates": [ -71.141278408558719, 42.342868350719598 ] } },
{ "type": "Feature", "properties": { "id": 355, "sname": "Bennington St at Constitution Beach", "lat": 42.385223935870535, "lon": -71.010630689652317 }, "geometry": { "type": "Point", "coordinates": [ -71.010630689652317, 42.385223935870535 ] } },
{ "type": "Feature", "properties": { "id": 356, "sname": "Charlestown Navy Yard", "lat": 42.374124549426533, "lon": -71.054811999383674 }, "geometry": { "type": "Point", "coordinates": [ -71.054811999383674, 42.374124549426533 ] } },
{ "type": "Feature", "properties": { "id": 357, "sname": "Centre St at Seaverns Ave", "lat": 42.3121203, "lon": -71.1142981 }, "geometry": { "type": "Point", "coordinates": [ -71.114298099999985, 42.3121203 ] } },
{ "type": "Feature", "properties": { "id": 358, "sname": "Medford St at Charlestown BCYF", "lat": 42.380429474494903, "lon": -71.060557216769681 }, "geometry": { "type": "Point", "coordinates": [ -71.060557216769681, 42.380429474494903 ] } },
{ "type": "Feature", "properties": { "id": 359, "sname": "One Brigham Circle", "lat": 42.333922701369964, "lon": -71.104465089829318 }, "geometry": { "type": "Point", "coordinates": [ -71.104465089829318, 42.333922701369964 ] } },
{ "type": "Feature", "properties": { "id": 360, "sname": "Bartlett St at John Elliot Sq", "lat": 42.3294633, "lon": -71.0901582 }, "geometry": { "type": "Point", "coordinates": [ -71.0901582, 42.3294633 ] } },
{ "type": "Feature", "properties": { "id": 361, "sname": "Deerfield St at Commonwealth Ave", "lat": 42.349243769553006, "lon": -71.097282096925483 }, "geometry": { "type": "Point", "coordinates": [ -71.097282096925483, 42.349243769553006 ] } },
{ "type": "Feature", "properties": { "id": 362, "sname": "Columbia Rd at Tierney Community Center", "lat": 42.330230705287292, "lon": -71.050600931230292 }, "geometry": { "type": "Point", "coordinates": [ -71.050600931230292, 42.330230705287292 ] } },
{ "type": "Feature", "properties": { "id": 363, "sname": "Harrison Ave at Mullins Way", "lat": 42.345215621150217, "lon": -71.063840314927802 }, "geometry": { "type": "Point", "coordinates": [ -71.063840314927802, 42.345215621150217 ] } },
{ "type": "Feature", "properties": { "id": 364, "sname": "Tremont St at Northampton St", "lat": 42.338895596441652, "lon": -71.081499756110119 }, "geometry": { "type": "Point", "coordinates": [ -71.081499756110119, 42.338895596441652 ] } },
{ "type": "Feature", "properties": { "id": 365, "sname": "Harrison Ave at Bennet St", "lat": 42.349426098925207, "lon": -71.06209959843909 }, "geometry": { "type": "Point", "coordinates": [ -71.06209959843909, 42.349426098925207 ] } },
{ "type": "Feature", "properties": { "id": 366, "sname": "Broadway T Stop", "lat": 42.342781162244137, "lon": -71.057472750726447 }, "geometry": { "type": "Point", "coordinates": [ -71.057472750726447, 42.342781162244137 ] } },
{ "type": "Feature", "properties": { "id": 367, "sname": "Vassal Lane at Tobin\/VLUS", "lat": 42.383932248904799, "lon": -71.139612719598517 }, "geometry": { "type": "Point", "coordinates": [ -71.139612719598517, 42.383932248904799 ] } },
{ "type": "Feature", "properties": { "id": 368, "sname": "Blue Hill Ave at Southwood St", "lat": 42.317860205899883, "lon": -71.077986285272345 }, "geometry": { "type": "Point", "coordinates": [ -71.077986285272345, 42.317860205899883 ] } },
{ "type": "Feature", "properties": { "id": 369, "sname": "Boston Public Market", "lat": 42.362548544093329, "lon": -71.057373583316789 }, "geometry": { "type": "Point", "coordinates": [ -71.057373583316789, 42.362548544093329 ] } },
{ "type": "Feature", "properties": { "id": 370, "sname": "Dartmouth St at Newbury St", "lat": 42.350961444212189, "lon": -71.077828109264374 }, "geometry": { "type": "Point", "coordinates": [ -71.077828109264374, 42.350961444212189 ] } },
{ "type": "Feature", "properties": { "id": 371, "sname": "700 Huron Ave", "lat": 42.380788172914293, "lon": -71.154128909111009 }, "geometry": { "type": "Point", "coordinates": [ -71.154128909111009, 42.380788172914293 ] } },
{ "type": "Feature", "properties": { "id": 372, "sname": "Boylston St at Exeter St", "lat": 42.349589423682453, "lon": -71.07946779173291 }, "geometry": { "type": "Point", "coordinates": [ -71.07946779173291, 42.349589423682453 ] } },
{ "type": "Feature", "properties": { "id": 373, "sname": "Belgrade Ave at Walworth St", "lat": 42.286345894863118, "lon": -71.136721298280449 }, "geometry": { "type": "Point", "coordinates": [ -71.136721298280449, 42.286345894863118 ] } },
{ "type": "Feature", "properties": { "id": 374, "sname": "Tremont St at Hamilton Place", "lat": 42.356683349699288, "lon": -71.061666458845139 }, "geometry": { "type": "Point", "coordinates": [ -71.061666458845139, 42.356683349699288 ] } },
{ "type": "Feature", "properties": { "id": 376, "sname": "Honan Library", "lat": 42.360273704549343, "lon": -71.128524523273882 }, "geometry": { "type": "Point", "coordinates": [ -71.128524523273882, 42.360273704549343 ] } },
{ "type": "Feature", "properties": { "id": 377, "sname": "Perry Park", "lat": 42.379273246008403, "lon": -71.10341902831351 }, "geometry": { "type": "Point", "coordinates": [ -71.10341902831351, 42.379273246008403 ] } },
{ "type": "Feature", "properties": { "id": 378, "sname": "191 Beacon St", "lat": 42.380323350454155, "lon": -71.10878612855231 }, "geometry": { "type": "Point", "coordinates": [ -71.10878612855231, 42.380323350454155 ] } },
{ "type": "Feature", "properties": { "id": 201301, "sname": "Ball Sq", "lat": 42.399878, "lon": -71.1136753 }, "geometry": { "type": "Point", "coordinates": [ -71.1136753, 42.399878 ] } },
{ "type": "Feature", "properties": { "id": 201401, "sname": "Longwood Ave\/Riverway", "lat": 42.340333, "lon": -71.109924 }, "geometry": { "type": "Point", "coordinates": [ -71.109924, 42.340333 ] } },
{ "type": "Feature", "properties": { "id": 201402, "sname": "Milk St at India St", "lat": 42.3584017, "lon": -71.0537113 }, "geometry": { "type": "Point", "coordinates": [ -71.0537113, 42.3584017 ] } }
]
}
